^D:\USERS\ADMIN\DESKTOP\STUDIA\PEA\PROJEKT 3 (GENETYCZNY)\TSP-GENETIC\GENETIC\TINYSTR.CPP
/c /ZI /nologo /W3 /WX- /diagnostics:classic /sdl /Od /Oy- /D _MBCS /Gm /EHsc /RTC1 /MDd /GS /fp:precise /Zc:wchar_t /Zc:forScope /Zc:inline /Fo"DEBUG\\" /Fd"DEBUG\VC141.PDB" /Gd /TP /analyze- D:\USERS\ADMIN\DESKTOP\STUDIA\PEA\PROJEKT 3 (GENETYCZNY)\TSP-GENETIC\GENETIC\TINYSTR.CPP
^D:\USERS\ADMIN\DESKTOP\STUDIA\PEA\PROJEKT 3 (GENETYCZNY)\TSP-GENETIC\GENETIC\TINYXML.CPP
/c /ZI /nologo /W3 /WX- /diagnostics:classic /sdl /Od /Oy- /D _MBCS /Gm /EHsc /RTC1 /MDd /GS /fp:precise /Zc:wchar_t /Zc:forScope /Zc:inline /Fo"DEBUG\\" /Fd"DEBUG\VC141.PDB" /Gd /TP /analyze- D:\USERS\ADMIN\DESKTOP\STUDIA\PEA\PROJEKT 3 (GENETYCZNY)\TSP-GENETIC\GENETIC\TINYXML.CPP
^D:\USERS\ADMIN\DESKTOP\STUDIA\PEA\PROJEKT 3 (GENETYCZNY)\TSP-GENETIC\GENETIC\TINYXMLERROR.CPP
/c /ZI /nologo /W3 /WX- /diagnostics:classic /sdl /Od /Oy- /D _MBCS /Gm /EHsc /RTC1 /MDd /GS /fp:precise /Zc:wchar_t /Zc:forScope /Zc:inline /Fo"DEBUG\\" /Fd"DEBUG\VC141.PDB" /Gd /TP /analyze- D:\USERS\ADMIN\DESKTOP\STUDIA\PEA\PROJEKT 3 (GENETYCZNY)\TSP-GENETIC\GENETIC\TINYXMLERROR.CPP
^D:\USERS\ADMIN\DESKTOP\STUDIA\PEA\PROJEKT 3 (GENETYCZNY)\TSP-GENETIC\GENETIC\TINYXMLPARSER.CPP
/c /ZI /nologo /W3 /WX- /diagnostics:classic /sdl /Od /Oy- /D _MBCS /Gm /EHsc /RTC1 /MDd /GS /fp:precise /Zc:wchar_t /Zc:forScope /Zc:inline /Fo"DEBUG\\" /Fd"DEBUG\VC141.PDB" /Gd /TP /analyze- D:\USERS\ADMIN\DESKTOP\STUDIA\PEA\PROJEKT 3 (GENETYCZNY)\TSP-GENETIC\GENETIC\TINYXMLPARSER.CPP
^D:\USERS\ADMIN\DESKTOP\STUDIA\PEA\PROJEKT 3 (GENETYCZNY)\TSP-GENETIC\GENETIC\GENETIC\MAIN.CPP
/c /ZI /nologo /W3 /WX- /diagnostics:classic /sdl /Od /Oy- /D _MBCS /Gm /EHsc /RTC1 /MDd /GS /fp:precise /Zc:wchar_t /Zc:forScope /Zc:inline /Fo"DEBUG\\" /Fd"DEBUG\VC141.PDB" /Gd /TP /analyze- D:\USERS\ADMIN\DESKTOP\STUDIA\PEA\PROJEKT 3 (GENETYCZNY)\TSP-GENETIC\GENETIC\GENETIC\MAIN.CPP
^D:\USERS\ADMIN\DESKTOP\STUDIA\PEA\PROJEKT 3 (GENETYCZNY)\TSP-GENETIC\GENETIC\GENETIC\PARSER.CPP
/c /ZI /nologo /W3 /WX- /diagnostics:classic /sdl /Od /Oy- /D _MBCS /Gm /EHsc /RTC1 /MDd /GS /fp:precise /Zc:wchar_t /Zc:forScope /Zc:inline /Fo"DEBUG\\" /Fd"DEBUG\VC141.PDB" /Gd /TP /analyze- D:\USERS\ADMIN\DESKTOP\STUDIA\PEA\PROJEKT 3 (GENETYCZNY)\TSP-GENETIC\GENETIC\GENETIC\PARSER.CPP
^D:\USERS\ADMIN\DESKTOP\STUDIA\PEA\PROJEKT 3 (GENETYCZNY)\TSP-GENETIC\GENETIC\GENETIC\TINYSTR.CPP
/c /ZI /nologo /W3 /WX- /diagnostics:classic /sdl /Od /Oy- /D _MBCS /Gm /EHsc /RTC1 /MDd /GS /fp:precise /Zc:wchar_t /Zc:forScope /Zc:inline /Fo"DEBUG\\" /Fd"DEBUG\VC141.PDB" /Gd /TP /analyze- D:\USERS\ADMIN\DESKTOP\STUDIA\PEA\PROJEKT 3 (GENETYCZNY)\TSP-GENETIC\GENETIC\GENETIC\TINYSTR.CPP
^D:\USERS\ADMIN\DESKTOP\STUDIA\PEA\PROJEKT 3 (GENETYCZNY)\TSP-GENETIC\GENETIC\GENETIC\TINYXML.CPP
/c /ZI /nologo /W3 /WX- /diagnostics:classic /sdl /Od /Oy- /D _MBCS /Gm /EHsc /RTC1 /MDd /GS /fp:precise /Zc:wchar_t /Zc:forScope /Zc:inline /Fo"DEBUG\\" /Fd"DEBUG\VC141.PDB" /Gd /TP /analyze- D:\USERS\ADMIN\DESKTOP\STUDIA\PEA\PROJEKT 3 (GENETYCZNY)\TSP-GENETIC\GENETIC\GENETIC\TINYXML.CPP
^D:\USERS\ADMIN\DESKTOP\STUDIA\PEA\PROJEKT 3 (GENETYCZNY)\TSP-GENETIC\GENETIC\GENETIC\TINYXMLERROR.CPP
/c /ZI /nologo /W3 /WX- /diagnostics:classic /sdl /Od /Oy- /D _MBCS /Gm /EHsc /RTC1 /MDd /GS /fp:precise /Zc:wchar_t /Zc:forScope /Zc:inline /Fo"DEBUG\\" /Fd"DEBUG\VC141.PDB" /Gd /TP /analyze- D:\USERS\ADMIN\DESKTOP\STUDIA\PEA\PROJEKT 3 (GENETYCZNY)\TSP-GENETIC\GENETIC\GENETIC\TINYXMLERROR.CPP
^D:\USERS\ADMIN\DESKTOP\STUDIA\PEA\PROJEKT 3 (GENETYCZNY)\TSP-GENETIC\GENETIC\GENETIC\TINYXMLPARSER.CPP
/c /ZI /nologo /W3 /WX- /diagnostics:classic /sdl /Od /Oy- /D _MBCS /Gm /EHsc /RTC1 /MDd /GS /fp:precise /Zc:wchar_t /Zc:forScope /Zc:inline /Fo"DEBUG\\" /Fd"DEBUG\VC141.PDB" /Gd /TP /analyze- D:\USERS\ADMIN\DESKTOP\STUDIA\PEA\PROJEKT 3 (GENETYCZNY)\TSP-GENETIC\GENETIC\GENETIC\TINYXMLPARSER.CPP
^D:\USERS\ADMIN\DESKTOP\STUDIA\PEA\PROJEKT 3 (GENETYCZNY)\TSP-GENETIC\GENETIC\GENETIC\SOLUTION.CPP
/c /ZI /nologo /W3 /WX- /diagnostics:classic /sdl /Od /Oy- /D _MBCS /Gm /EHsc /RTC1 /MDd /GS /fp:precise /Zc:wchar_t /Zc:forScope /Zc:inline /Fo"DEBUG\\" /Fd"DEBUG\VC141.PDB" /Gd /TP /analyze- D:\USERS\ADMIN\DESKTOP\STUDIA\PEA\PROJEKT 3 (GENETYCZNY)\TSP-GENETIC\GENETIC\GENETIC\SOLUTION.CPP
