^D:\USERS\ADMIN\DESKTOP\STUDIA\PEA\PROJEKT 3 (GENETYCZNY)\TSP-GENETIC\GENETIC\GENETIC\MAIN.CPP|D:\USERS\ADMIN\DESKTOP\STUDIA\PEA\PROJEKT 3 (GENETYCZNY)\TSP-GENETIC\GENETIC\TINYSTR.CPP|D:\USERS\ADMIN\DESKTOP\STUDIA\PEA\PROJEKT 3 (GENETYCZNY)\TSP-GENETIC\GENETIC\TINYXML.CPP|D:\USERS\ADMIN\DESKTOP\STUDIA\PEA\PROJEKT 3 (GENETYCZNY)\TSP-GENETIC\GENETIC\TINYXMLERROR.CPP|D:\USERS\ADMIN\DESKTOP\STUDIA\PEA\PROJEKT 3 (GENETYCZNY)\TSP-GENETIC\GENETIC\TINYXMLPARSER.CPP
D:\USERS\ADMIN\DESKTOP\STUDIA\PEA\PROJEKT 3 (GENETYCZNY)\TSP-GENETIC\GENETIC\GENETIC\DEBUG\VC141.PDB
D:\USERS\ADMIN\DESKTOP\STUDIA\PEA\PROJEKT 3 (GENETYCZNY)\TSP-GENETIC\GENETIC\GENETIC\DEBUG\VC141.IDB
D:\USERS\ADMIN\DESKTOP\STUDIA\PEA\PROJEKT 3 (GENETYCZNY)\TSP-GENETIC\GENETIC\GENETIC\DEBUG\TINYSTR.OBJ
D:\USERS\ADMIN\DESKTOP\STUDIA\PEA\PROJEKT 3 (GENETYCZNY)\TSP-GENETIC\GENETIC\GENETIC\DEBUG\TINYXML.OBJ
D:\USERS\ADMIN\DESKTOP\STUDIA\PEA\PROJEKT 3 (GENETYCZNY)\TSP-GENETIC\GENETIC\GENETIC\DEBUG\TINYXMLERROR.OBJ
D:\USERS\ADMIN\DESKTOP\STUDIA\PEA\PROJEKT 3 (GENETYCZNY)\TSP-GENETIC\GENETIC\GENETIC\DEBUG\TINYXMLPARSER.OBJ
D:\USERS\ADMIN\DESKTOP\STUDIA\PEA\PROJEKT 3 (GENETYCZNY)\TSP-GENETIC\GENETIC\GENETIC\DEBUG\MAIN.OBJ
^D:\USERS\ADMIN\DESKTOP\STUDIA\PEA\PROJEKT 3 (GENETYCZNY)\TSP-GENETIC\GENETIC\TINYSTR.CPP
D:\USERS\ADMIN\DESKTOP\STUDIA\PEA\PROJEKT 3 (GENETYCZNY)\TSP-GENETIC\GENETIC\GENETIC\DEBUG\VC141.PDB
^D:\USERS\ADMIN\DESKTOP\STUDIA\PEA\PROJEKT 3 (GENETYCZNY)\TSP-GENETIC\GENETIC\TINYXML.CPP
D:\USERS\ADMIN\DESKTOP\STUDIA\PEA\PROJEKT 3 (GENETYCZNY)\TSP-GENETIC\GENETIC\GENETIC\DEBUG\VC141.PDB
^D:\USERS\ADMIN\DESKTOP\STUDIA\PEA\PROJEKT 3 (GENETYCZNY)\TSP-GENETIC\GENETIC\TINYXMLERROR.CPP
D:\USERS\ADMIN\DESKTOP\STUDIA\PEA\PROJEKT 3 (GENETYCZNY)\TSP-GENETIC\GENETIC\GENETIC\DEBUG\VC141.PDB
^D:\USERS\ADMIN\DESKTOP\STUDIA\PEA\PROJEKT 3 (GENETYCZNY)\TSP-GENETIC\GENETIC\TINYXMLPARSER.CPP
D:\USERS\ADMIN\DESKTOP\STUDIA\PEA\PROJEKT 3 (GENETYCZNY)\TSP-GENETIC\GENETIC\GENETIC\DEBUG\VC141.PDB
^D:\USERS\ADMIN\DESKTOP\STUDIA\PEA\PROJEKT 3 (GENETYCZNY)\TSP-GENETIC\GENETIC\GENETIC\MAIN.CPP
D:\USERS\ADMIN\DESKTOP\STUDIA\PEA\PROJEKT 3 (GENETYCZNY)\TSP-GENETIC\GENETIC\GENETIC\DEBUG\VC141.PDB
D:\USERS\ADMIN\DESKTOP\STUDIA\PEA\PROJEKT 3 (GENETYCZNY)\TSP-GENETIC\GENETIC\GENETIC\DEBUG\VC141.IDB
D:\USERS\ADMIN\DESKTOP\STUDIA\PEA\PROJEKT 3 (GENETYCZNY)\TSP-GENETIC\GENETIC\GENETIC\DEBUG\MAIN.OBJ
^D:\USERS\ADMIN\DESKTOP\STUDIA\PEA\PROJEKT 3 (GENETYCZNY)\TSP-GENETIC\GENETIC\GENETIC\MAIN.CPP|D:\USERS\ADMIN\DESKTOP\STUDIA\PEA\PROJEKT 3 (GENETYCZNY)\TSP-GENETIC\GENETIC\GENETIC\PARSER.CPP|D:\USERS\ADMIN\DESKTOP\STUDIA\PEA\PROJEKT 3 (GENETYCZNY)\TSP-GENETIC\GENETIC\GENETIC\TINYSTR.CPP|D:\USERS\ADMIN\DESKTOP\STUDIA\PEA\PROJEKT 3 (GENETYCZNY)\TSP-GENETIC\GENETIC\GENETIC\TINYXML.CPP|D:\USERS\ADMIN\DESKTOP\STUDIA\PEA\PROJEKT 3 (GENETYCZNY)\TSP-GENETIC\GENETIC\GENETIC\TINYXMLERROR.CPP|D:\USERS\ADMIN\DESKTOP\STUDIA\PEA\PROJEKT 3 (GENETYCZNY)\TSP-GENETIC\GENETIC\GENETIC\TINYXMLPARSER.CPP
D:\USERS\ADMIN\DESKTOP\STUDIA\PEA\PROJEKT 3 (GENETYCZNY)\TSP-GENETIC\GENETIC\GENETIC\DEBUG\VC141.PDB
D:\USERS\ADMIN\DESKTOP\STUDIA\PEA\PROJEKT 3 (GENETYCZNY)\TSP-GENETIC\GENETIC\GENETIC\DEBUG\VC141.IDB
D:\USERS\ADMIN\DESKTOP\STUDIA\PEA\PROJEKT 3 (GENETYCZNY)\TSP-GENETIC\GENETIC\GENETIC\DEBUG\MAIN.OBJ
D:\USERS\ADMIN\DESKTOP\STUDIA\PEA\PROJEKT 3 (GENETYCZNY)\TSP-GENETIC\GENETIC\GENETIC\DEBUG\PARSER.OBJ
D:\USERS\ADMIN\DESKTOP\STUDIA\PEA\PROJEKT 3 (GENETYCZNY)\TSP-GENETIC\GENETIC\GENETIC\DEBUG\TINYSTR.OBJ
D:\USERS\ADMIN\DESKTOP\STUDIA\PEA\PROJEKT 3 (GENETYCZNY)\TSP-GENETIC\GENETIC\GENETIC\DEBUG\TINYXML.OBJ
D:\USERS\ADMIN\DESKTOP\STUDIA\PEA\PROJEKT 3 (GENETYCZNY)\TSP-GENETIC\GENETIC\GENETIC\DEBUG\TINYXMLERROR.OBJ
D:\USERS\ADMIN\DESKTOP\STUDIA\PEA\PROJEKT 3 (GENETYCZNY)\TSP-GENETIC\GENETIC\GENETIC\DEBUG\TINYXMLPARSER.OBJ
^D:\USERS\ADMIN\DESKTOP\STUDIA\PEA\PROJEKT 3 (GENETYCZNY)\TSP-GENETIC\GENETIC\GENETIC\PARSER.CPP
D:\USERS\ADMIN\DESKTOP\STUDIA\PEA\PROJEKT 3 (GENETYCZNY)\TSP-GENETIC\GENETIC\GENETIC\DEBUG\VC141.PDB
D:\USERS\ADMIN\DESKTOP\STUDIA\PEA\PROJEKT 3 (GENETYCZNY)\TSP-GENETIC\GENETIC\GENETIC\DEBUG\VC141.IDB
D:\USERS\ADMIN\DESKTOP\STUDIA\PEA\PROJEKT 3 (GENETYCZNY)\TSP-GENETIC\GENETIC\GENETIC\DEBUG\PARSER.OBJ
^D:\USERS\ADMIN\DESKTOP\STUDIA\PEA\PROJEKT 3 (GENETYCZNY)\TSP-GENETIC\GENETIC\GENETIC\TINYSTR.CPP
D:\USERS\ADMIN\DESKTOP\STUDIA\PEA\PROJEKT 3 (GENETYCZNY)\TSP-GENETIC\GENETIC\GENETIC\DEBUG\VC141.PDB
^D:\USERS\ADMIN\DESKTOP\STUDIA\PEA\PROJEKT 3 (GENETYCZNY)\TSP-GENETIC\GENETIC\GENETIC\TINYXML.CPP
D:\USERS\ADMIN\DESKTOP\STUDIA\PEA\PROJEKT 3 (GENETYCZNY)\TSP-GENETIC\GENETIC\GENETIC\DEBUG\VC141.PDB
^D:\USERS\ADMIN\DESKTOP\STUDIA\PEA\PROJEKT 3 (GENETYCZNY)\TSP-GENETIC\GENETIC\GENETIC\TINYXMLERROR.CPP
D:\USERS\ADMIN\DESKTOP\STUDIA\PEA\PROJEKT 3 (GENETYCZNY)\TSP-GENETIC\GENETIC\GENETIC\DEBUG\VC141.PDB
^D:\USERS\ADMIN\DESKTOP\STUDIA\PEA\PROJEKT 3 (GENETYCZNY)\TSP-GENETIC\GENETIC\GENETIC\TINYXMLPARSER.CPP
D:\USERS\ADMIN\DESKTOP\STUDIA\PEA\PROJEKT 3 (GENETYCZNY)\TSP-GENETIC\GENETIC\GENETIC\DEBUG\VC141.PDB
^D:\USERS\ADMIN\DESKTOP\STUDIA\PEA\PROJEKT 3 (GENETYCZNY)\TSP-GENETIC\GENETIC\GENETIC\MAIN.CPP|D:\USERS\ADMIN\DESKTOP\STUDIA\PEA\PROJEKT 3 (GENETYCZNY)\TSP-GENETIC\GENETIC\GENETIC\PARSER.CPP
D:\USERS\ADMIN\DESKTOP\STUDIA\PEA\PROJEKT 3 (GENETYCZNY)\TSP-GENETIC\GENETIC\GENETIC\DEBUG\VC141.PDB
D:\USERS\ADMIN\DESKTOP\STUDIA\PEA\PROJEKT 3 (GENETYCZNY)\TSP-GENETIC\GENETIC\GENETIC\DEBUG\VC141.IDB
D:\USERS\ADMIN\DESKTOP\STUDIA\PEA\PROJEKT 3 (GENETYCZNY)\TSP-GENETIC\GENETIC\GENETIC\DEBUG\MAIN.OBJ
D:\USERS\ADMIN\DESKTOP\STUDIA\PEA\PROJEKT 3 (GENETYCZNY)\TSP-GENETIC\GENETIC\GENETIC\DEBUG\PARSER.OBJ
^D:\USERS\ADMIN\DESKTOP\STUDIA\PEA\PROJEKT 3 (GENETYCZNY)\TSP-GENETIC\GENETIC\GENETIC\MAIN.CPP|D:\USERS\ADMIN\DESKTOP\STUDIA\PEA\PROJEKT 3 (GENETYCZNY)\TSP-GENETIC\GENETIC\GENETIC\PARSER.CPP|D:\USERS\ADMIN\DESKTOP\STUDIA\PEA\PROJEKT 3 (GENETYCZNY)\TSP-GENETIC\GENETIC\GENETIC\SOLUTION.CPP
D:\USERS\ADMIN\DESKTOP\STUDIA\PEA\PROJEKT 3 (GENETYCZNY)\TSP-GENETIC\GENETIC\GENETIC\DEBUG\VC141.PDB
D:\USERS\ADMIN\DESKTOP\STUDIA\PEA\PROJEKT 3 (GENETYCZNY)\TSP-GENETIC\GENETIC\GENETIC\DEBUG\VC141.IDB
D:\USERS\ADMIN\DESKTOP\STUDIA\PEA\PROJEKT 3 (GENETYCZNY)\TSP-GENETIC\GENETIC\GENETIC\DEBUG\MAIN.OBJ
D:\USERS\ADMIN\DESKTOP\STUDIA\PEA\PROJEKT 3 (GENETYCZNY)\TSP-GENETIC\GENETIC\GENETIC\DEBUG\PARSER.OBJ
D:\USERS\ADMIN\DESKTOP\STUDIA\PEA\PROJEKT 3 (GENETYCZNY)\TSP-GENETIC\GENETIC\GENETIC\DEBUG\SOLUTION.OBJ
^D:\USERS\ADMIN\DESKTOP\STUDIA\PEA\PROJEKT 3 (GENETYCZNY)\TSP-GENETIC\GENETIC\GENETIC\SOLUTION.CPP
D:\USERS\ADMIN\DESKTOP\STUDIA\PEA\PROJEKT 3 (GENETYCZNY)\TSP-GENETIC\GENETIC\GENETIC\DEBUG\VC141.PDB
D:\USERS\ADMIN\DESKTOP\STUDIA\PEA\PROJEKT 3 (GENETYCZNY)\TSP-GENETIC\GENETIC\GENETIC\DEBUG\VC141.IDB
D:\USERS\ADMIN\DESKTOP\STUDIA\PEA\PROJEKT 3 (GENETYCZNY)\TSP-GENETIC\GENETIC\GENETIC\DEBUG\SOLUTION.OBJ
^D:\USERS\ADMIN\DESKTOP\STUDIA\PEA\PROJEKT 3 (GENETYCZNY)\TSP-GENETIC\GENETIC\GENETIC\MAIN.CPP|D:\USERS\ADMIN\DESKTOP\STUDIA\PEA\PROJEKT 3 (GENETYCZNY)\TSP-GENETIC\GENETIC\GENETIC\SOLUTION.CPP
D:\USERS\ADMIN\DESKTOP\STUDIA\PEA\PROJEKT 3 (GENETYCZNY)\TSP-GENETIC\GENETIC\GENETIC\DEBUG\VC141.PDB
D:\USERS\ADMIN\DESKTOP\STUDIA\PEA\PROJEKT 3 (GENETYCZNY)\TSP-GENETIC\GENETIC\GENETIC\DEBUG\VC141.IDB
D:\USERS\ADMIN\DESKTOP\STUDIA\PEA\PROJEKT 3 (GENETYCZNY)\TSP-GENETIC\GENETIC\GENETIC\DEBUG\MAIN.OBJ
D:\USERS\ADMIN\DESKTOP\STUDIA\PEA\PROJEKT 3 (GENETYCZNY)\TSP-GENETIC\GENETIC\GENETIC\DEBUG\SOLUTION.OBJ
